%YAML 1.1
%TAG !u! tag:unity3d.com,2011:
--- !u!114 &11400000
MonoBehaviour:
  m_ObjectHideFlags: 0
  m_CorrespondingSourceObject: {fileID: 0}
  m_PrefabInstance: {fileID: 0}
  m_PrefabAsset: {fileID: 0}
  m_GameObject: {fileID: 0}
  m_Enabled: 1
  m_EditorHideFlags: 0
  m_Script: {fileID: 11500000, guid: eb42dfd39979cdd43aeb24b9a527b539, type: 3}
  m_Name: MachineGun
  m_EditorClassIdentifier: 
  gunName: MachineGun
  damage: 100
  ammo: 150
  burst: 1
  clipSize: 32
  fireRate: 0.1
  bloom: 20
  recoil: 4
  kickBack: 0.05
  aimSpeed: 7
  reload: 2.5
  prefab: {fileID: 1098757683128673742, guid: cd603904b81cb214f81ed2a07251a02d, type: 3}
