%YAML 1.1
%TAG !u! tag:unity3d.com,2011:
--- !u!114 &11400000
MonoBehaviour:
  m_ObjectHideFlags: 0
  m_CorrespondingSourceObject: {fileID: 0}
  m_PrefabInstance: {fileID: 0}
  m_PrefabAsset: {fileID: 0}
  m_GameObject: {fileID: 0}
  m_Enabled: 1
  m_EditorHideFlags: 0
  m_Script: {fileID: 11500000, guid: eb42dfd39979cdd43aeb24b9a527b539, type: 3}
  m_Name: Pistol
  m_EditorClassIdentifier: 
  gunName: Pistol
  damage: 100
  ammo: 25
  clipSize: 8
  fireRate: 0.15
  aimSpeed: 7
  bloom: 20
  recoil: 7
  kickBack: 0.15
  reload: 1.5
  prefab: {fileID: 1098757683128673742, guid: 38ab4a628768ad94296b7f4007bfe120, type: 3}
